{
    "results": [
    {
        "id": "1",
        "name": "RDJ",
        "movies": "100"
    },
    {
        "id": "2",
        "name": "Tom Hollande",
        "movies": "3"
    },
    {
        "id": "3",
        "name": "Benedict Cumberbatch",
        "movies": "10"
    },
    {
        "id": "4",
        "name": "Chris Hemsworth",
        "movies": "30"
    },
    {
        "id": "5",
        "name": "Chris Evans",
        "movies": "20"
    }]
}
