^C:\USERS\SHADEPORTABLE\DOCUMENTS\DEV\COURS\C++\OPENCLASSROOM\OPENCLASSROOM\00 THÉORIE.CPP|C:\USERS\SHADEPORTABLE\DOCUMENTS\DEV\COURS\C++\OPENCLASSROOM\OPENCLASSROOM\01 HELLO WORLD.CPP
C:\USERS\SHADEPORTABLE\DOCUMENTS\DEV\COURS\C++\OPENCLASSROOM\OPENCLASSROOM\DEBUG\VC142.PDB
C:\USERS\SHADEPORTABLE\DOCUMENTS\DEV\COURS\C++\OPENCLASSROOM\OPENCLASSROOM\DEBUG\VC142.IDB
C:\USERS\SHADEPORTABLE\DOCUMENTS\DEV\COURS\C++\OPENCLASSROOM\OPENCLASSROOM\DEBUG\01 HELLO WORLD.OBJ
C:\USERS\SHADEPORTABLE\DOCUMENTS\DEV\COURS\C++\OPENCLASSROOM\OPENCLASSROOM\DEBUG\00 THéORIE.OBJ
^C:\USERS\SHADEPORTABLE\DOCUMENTS\DEV\COURS\C++\OPENCLASSROOM\OPENCLASSROOM\00 THÉORIE.CPP
C:\USERS\SHADEPORTABLE\DOCUMENTS\DEV\COURS\C++\OPENCLASSROOM\OPENCLASSROOM\DEBUG\VC142.PDB
^C:\USERS\SHADEPORTABLE\DOCUMENTS\DEV\COURS\C++\OPENCLASSROOM\OPENCLASSROOM\01 HELLO WORLD.CPP|C:\USERS\SHADEPORTABLE\DOCUMENTS\DEV\COURS\C++\OPENCLASSROOM\OPENCLASSROOM\02 VARIABLES.CPP
C:\USERS\SHADEPORTABLE\DOCUMENTS\DEV\COURS\C++\OPENCLASSROOM\OPENCLASSROOM\DEBUG\VC142.PDB
C:\USERS\SHADEPORTABLE\DOCUMENTS\DEV\COURS\C++\OPENCLASSROOM\OPENCLASSROOM\DEBUG\VC142.IDB
C:\USERS\SHADEPORTABLE\DOCUMENTS\DEV\COURS\C++\OPENCLASSROOM\OPENCLASSROOM\DEBUG\01 HELLO WORLD.OBJ
^C:\USERS\SHADEPORTABLE\DOCUMENTS\DEV\COURS\C++\OPENCLASSROOM\OPENCLASSROOM\01 HELLO WORLD.CPP
C:\USERS\SHADEPORTABLE\DOCUMENTS\DEV\COURS\C++\OPENCLASSROOM\OPENCLASSROOM\DEBUG\01 HELLO WORLD.OBJ
^C:\USERS\SHADEPORTABLE\DOCUMENTS\DEV\COURS\C++\OPENCLASSROOM\OPENCLASSROOM\02 VARIABLES.CPP|C:\USERS\SHADEPORTABLE\DOCUMENTS\DEV\COURS\C++\OPENCLASSROOM\OPENCLASSROOM\03 POINTEURS.CPP
C:\USERS\SHADEPORTABLE\DOCUMENTS\DEV\COURS\C++\OPENCLASSROOM\OPENCLASSROOM\DEBUG\VC142.PDB
C:\USERS\SHADEPORTABLE\DOCUMENTS\DEV\COURS\C++\OPENCLASSROOM\OPENCLASSROOM\DEBUG\VC142.IDB
C:\USERS\SHADEPORTABLE\DOCUMENTS\DEV\COURS\C++\OPENCLASSROOM\OPENCLASSROOM\DEBUG\03 POINTEURS.OBJ
C:\USERS\SHADEPORTABLE\DOCUMENTS\DEV\COURS\C++\OPENCLASSROOM\OPENCLASSROOM\DEBUG\02 VARIABLES.OBJ
^C:\USERS\SHADEPORTABLE\DOCUMENTS\DEV\COURS\C++\OPENCLASSROOM\OPENCLASSROOM\02 VARIABLES.CPP
C:\USERS\SHADEPORTABLE\DOCUMENTS\DEV\COURS\C++\OPENCLASSROOM\OPENCLASSROOM\DEBUG\VC142.PDB
^C:\USERS\SHADEPORTABLE\DOCUMENTS\DEV\COURS\C++\OPENCLASSROOM\OPENCLASSROOM\03 POINTEURS.CPP|C:\USERS\SHADEPORTABLE\DOCUMENTS\DEV\COURS\C++\OPENCLASSROOM\OPENCLASSROOM\04 DEMANDE ENTRÉE UTILISATEUR.CPP
C:\USERS\SHADEPORTABLE\DOCUMENTS\DEV\COURS\C++\OPENCLASSROOM\OPENCLASSROOM\DEBUG\VC142.PDB
C:\USERS\SHADEPORTABLE\DOCUMENTS\DEV\COURS\C++\OPENCLASSROOM\OPENCLASSROOM\DEBUG\VC142.IDB
C:\USERS\SHADEPORTABLE\DOCUMENTS\DEV\COURS\C++\OPENCLASSROOM\OPENCLASSROOM\DEBUG\04 DEMANDE ENTRéE UTILISATEUR.OBJ
C:\USERS\SHADEPORTABLE\DOCUMENTS\DEV\COURS\C++\OPENCLASSROOM\OPENCLASSROOM\DEBUG\03 POINTEURS.OBJ
^C:\USERS\SHADEPORTABLE\DOCUMENTS\DEV\COURS\C++\OPENCLASSROOM\OPENCLASSROOM\03 POINTEURS.CPP
C:\USERS\SHADEPORTABLE\DOCUMENTS\DEV\COURS\C++\OPENCLASSROOM\OPENCLASSROOM\DEBUG\VC142.PDB
^C:\USERS\SHADEPORTABLE\DOCUMENTS\DEV\COURS\C++\OPENCLASSROOM\OPENCLASSROOM\04 DEMANDE ENTRÉE UTILISATEUR.CPP
C:\USERS\SHADEPORTABLE\DOCUMENTS\DEV\COURS\C++\OPENCLASSROOM\OPENCLASSROOM\DEBUG\VC142.PDB
C:\USERS\SHADEPORTABLE\DOCUMENTS\DEV\COURS\C++\OPENCLASSROOM\OPENCLASSROOM\DEBUG\VC142.IDB
C:\USERS\SHADEPORTABLE\DOCUMENTS\DEV\COURS\C++\OPENCLASSROOM\OPENCLASSROOM\DEBUG\04 DEMANDE ENTRéE UTILISATEUR.OBJ
